<?xml version="1.0" encoding="UTF-8" standalone="no"?>
<svg width="146px" height="146px" viewBox="0 0 146 146" version="1.1" xmlns="http://www.w3.org/2000/svg" xmlns:xlink="http://www.w3.org/1999/xlink" xmlns:sketch="http://www.bohemiancoding.com/sketch/ns">
    <!-- Generator: Sketch 3.4.1 (15681) - http://www.bohemiancoding.com/sketch -->
    <title>diagram-bg</title>
    <desc>Created with Sketch.</desc>
    <defs></defs>
    <g id="UI-Kit-&amp;-Metrics" stroke="none" stroke-width="1" fill="none" fill-rule="evenodd" sketch:type="MSPage">
        <g id="Main" sketch:type="MSArtboardGroup" transform="translate(-287.000000, -3072.000000)" stroke="#F1F3F3" stroke-width="8">
            <g id="Trade" sketch:type="MSLayerGroup" transform="translate(250.000000, 2929.000000)">
                <g id="1" transform="translate(0.000000, 111.000000)" sketch:type="MSShapeGroup">
                    <g id="Bitmap" transform="translate(35.000000, 30.000000)">
                        <circle id="diagram-bg" cx="75" cy="75" r="69"></circle>
                    </g>
                </g>
            </g>
        </g>
    </g>
</svg>